\relax 
\catcode `"\active 
\babel@aux{dutch}{}
\@writefile{toc}{\contentsline {section}{\numberline {1}Introductie}{1}}
\newlabel{ref:introductie}{{1}{1}}
\@writefile{toc}{\contentsline {section}{\numberline {2}Analyse van het probleem}{1}}
\newlabel{ref:analyse-probleem}{{2}{1}}
\@writefile{toc}{\contentsline {subsection}{\numberline {2.1}Wat is EMC?}{1}}
\@writefile{lof}{\contentsline {figure}{\numberline {1}{\ignorespaces De Shielding Effectiveness (SE) formule.}}{1}}
\newlabel{fig:se}{{1}{1}}
\@writefile{toc}{\contentsline {subsection}{\numberline {2.2}EMC in het Mobelcar project}{1}}
\@writefile{toc}{\contentsline {section}{\numberline {3}Shielding methodes}{2}}
\newlabel{ref:shielding-methodes}{{3}{2}}
\@writefile{toc}{\contentsline {subsection}{\numberline {3.1}Kabels}{2}}
\newlabel{ref:shielding-kabel-methodes}{{3.1}{2}}
\@writefile{toc}{\contentsline {subsubsection}{\numberline {3.1.1}Single braided coaxkabel}{2}}
\@writefile{lof}{\contentsline {figure}{\numberline {2}{\ignorespaces Transferimpedantie van verschillende kabels}}{2}}
\newlabel{fig:trans-imp}{{2}{2}}
\@writefile{toc}{\contentsline {subsubsection}{\numberline {3.1.2}Aluminium/mylar-foil-kabel}{2}}
\@writefile{toc}{\contentsline {subsubsection}{\numberline {3.1.3}Semi-rigid-coaxkabel}{2}}
\@writefile{toc}{\contentsline {subsubsection}{\numberline {3.1.4}Double-braided-coaxkabel}{2}}
\@writefile{toc}{\contentsline {subsubsection}{\numberline {3.1.5}Triax-braid-kabel}{3}}
\@writefile{toc}{\contentsline {subsubsection}{\numberline {3.1.6}Superscreen-kabel}{3}}
\@writefile{toc}{\contentsline {subsection}{\numberline {3.2}ESA's}{3}}
\newlabel{ref:shielding-esa-methodes}{{3.2}{3}}
\@writefile{toc}{\contentsline {subsubsection}{\numberline {3.2.1}Metalen omhulsel}{3}}
\@writefile{toc}{\contentsline {subsubsection}{\numberline {3.2.2}Plastiek folies met metaallaag}{3}}
\@writefile{lof}{\contentsline {figure}{\numberline {3}{\ignorespaces Aluminum folie als een huis-tuin-keuken oplossing voor shielding problemen.}}{3}}
\newlabel{fig:folie-shielding}{{3}{3}}
\@writefile{toc}{\contentsline {subsubsection}{\numberline {3.2.3}Geleidende polymeren}{3}}
\@writefile{toc}{\contentsline {subsubsection}{\numberline {3.2.4}Printplaat shielding}{3}}
\@writefile{lof}{\contentsline {figure}{\numberline {4}{\ignorespaces Printplaat shielding bij een GSM toestel.}}{4}}
\newlabel{fig:pcb-shielding}{{4}{4}}
\@writefile{toc}{\contentsline {subsection}{\numberline {3.3}Toepassen op het Mobelcar project}{4}}
\@writefile{toc}{\contentsline {section}{\numberline {4}Shielding berekeningen bij het Mobelcar project}{4}}
\newlabel{ref:shielding-berekeningen}{{4}{4}}
\@writefile{toc}{\contentsline {subsection}{\numberline {4.1}ESA}{4}}
\@writefile{toc}{\contentsline {subsection}{\numberline {4.2}Kabels}{5}}
\bibcite{evaluation-engineering}{1}
\bibcite{learnemc-practical-em-shielding}{2}
\bibcite{learnemc-shielding-theory}{3}
\bibcite{se-near-field-far-field}{4}
\bibcite{auto-95-54-ec-norm}{5}
\bibcite{permeability}{6}
\bibcite{faraday-cage}{7}
\@writefile{toc}{\contentsline {section}{\numberline {5}Conclusie}{6}}
\newlabel{ref:conclusie}{{5}{6}}
